DepsearcheR - querying syntactically annotated data with R
…
matched_words <- ApplyConllFilter(gospel_of_john_sentences, AnotherFilter, "matches")

Now we have a tibble called matched_words which contains all the words (all the rows from the conll representations of sentences). With this tibble we can do any statistical operations we would normally do with or data sets. As an especially simple example, think about taking all the subject dependents of finite verbs in the gospel of John and looking at which lemmas are most frequent as the subject:

matched_words %>% count(lemma)  %>% arrange(desc(n))

## # A tibble: 129 x 2
##    lemma         n
##    <fct>     <int>
##  1 Jesus       187
##  2 Father       29
##  3 man          23
##  4 Peter        19
##  5 one          18
##  6 world        15
##  7 Pilate       14
##  8 Lord         11
##  9 multitude    11
## 10 John         10
## # ... with 119 more rows
…
verbs_with_Jesus <- ApplyConllFilter(gospel_of_john_sentences,YetAnotherFilter,"both_pretty")

The filter became a little circular (we’re first taking all the dependents of verbs, then filtering those and then getting their heads again…), but it does the job:

verbs_with_Jesus %>% count(lemma) %>% arrange(desc(n))

## # A tibble: 35 x 2
##    lemma      n
##    <fct>  <int>
##  1 say       65
##  2 answer    36
##  3 come      16
##  4 do         9
##  5 go         7
##  6 speak      6
##  7 love       6
##  8 see        5
##  9 walk       4
## 10 make       3
## # ... with 25 more rows
…
The basic idea is to have the data in a data frame / tibble where one row corresponds to one sentence (or one relevant annotated context of any length) and there is a column containing the conll representation of the sentence. In addition, you probably have some variables, at least metadata an the like. One sample use case is, for instance, if you’ve queried for Twitter data and would like to have each tweet parsed and then use the conll output of the tweet together with the massive amounts of metadata variables provided by the Twitter API for each tweet.

Here’s a toy example of such a task.

Let’s imagine we want to analyze the usage of the word “referee” in recent Uefa champions’ league games (recent, because the Twitter api only let’s you search for tweets not older than one week). In order to run the following you need to have requested developer access from Twitter, but never mind, the data is also available as a small data set accompanying this package.

#library(rtweet)
#ref <- search_tweets("(#UCL OR #ChampionsLeague OR #UEFAChampionsLeague) referee",  n = 5000)

I used the method described in the context of the webcorpcrawler python utility to add syntactic annotations using Stanford Core-NLP. This gave me the following data set, available, as mentioned, as part of this package. (I’ve stripped away most of the props offered by the Twitter API since there is A LOT of them)

ucl_ref

## # A tibble: 262 x 6
##    text     followers retweets favorites location parsed_text             
##    <chr>        <int>    <int>     <int> <chr>    <chr>                   
##  1 "Here's…      8251        1         1 Berlin,… "1\tHere\there\tRB\t_\t…
##  2 "\"We l…       146        1         0 Kraków,… "1\t``\t``\t``\t_\t3\tp…
##  3 "#Wedne…        58        7         0 lagos c… "1\t#WednesdayWisdom\t#…
##  4 "This r…     20546       28         0 South A… "1\tThis\tthis\tDT\t_\t…
##  5 "They m…      4310        0         0 Lagos N… "1\tThey\tthey\tPRP\t_\…
##  6 "This r…     11689       28         0 ☆S I Y … "1\tThis\tthis\tDT\t_\t…
##  7 "Jurgen…      4566        1         3 New Del… "1\tJurgen\tJurgen\tNNP…
##  8 "#Jurge…       506        0         0 Armenia  "1\t#JurgenKlopp\t#jurg…
##  9 Liverpo…     34247        1         0 Paris, … "1\tLiverpool\tLiverpoo…
## 10 Liverpo…     34247        1         0 Paris, … "1\tLiverpool\tLiverpoo…
## # ... with 252 more rows
…
